<svg xmlns="http://www.w3.org/2000/svg" viewBox="0 0 552.766 275.05">
  <defs>
    <style>
      .cls-1 {
        opacity: 0.15;
      }

      .cls-2 {
        fill: #afafaf;
      }
    </style>
  </defs>
  <g id="Group_95" data-name="Group 95" transform="translate(-684 -1137.58)">
    <g id="Group_60" data-name="Group 60" class="cls-1" transform="translate(3 -6)">
      <g id="Group_57" data-name="Group 57" transform="translate(-9 10)">
        <g id="Group_55" data-name="Group 55" transform="translate(-50 -1114)">
          <g id="Group_54" data-name="Group 54">
            <circle id="Ellipse_45" data-name="Ellipse 45" class="cls-2" cx="1.883" cy="1.883" r="1.883" transform="translate(740 2403.234)"/>
            <circle id="Ellipse_60" data-name="Ellipse 60" class="cls-2" cx="1.883" cy="1.883" r="1.883" transform="translate(740 2383.777)"/>
            <circle id="Ellipse_75" data-name="Ellipse 75" class="cls-2" cx="1.883" cy="1.883" r="1.883" transform="translate(740 2364.321)"/>
            <circle id="Ellipse_90" data-name="Ellipse 90" class="cls-2" cx="1.883" cy="1.883" r="1.883" transform="translate(740 2344.864)"/>
            <circle id="Ellipse_105" data-name="Ellipse 105" class="cls-2" cx="1.883" cy="1.883" r="1.883" transform="translate(740 2325.407)"/>
            <circle id="Ellipse_120" data-name="Ellipse 120" class="cls-2" cx="1.883" cy="1.883" r="1.883" transform="translate(740 2305.95)"/>
            <circle id="Ellipse_135" data-name="Ellipse 135" class="cls-2" cx="1.883" cy="1.883" r="1.883" transform="translate(740 2286.493)"/>
            <circle id="Ellipse_150" data-name="Ellipse 150" class="cls-2" cx="1.883" cy="1.883" r="1.883" transform="translate(740 2267.037)"/>
            <circle id="Ellipse_165" data-name="Ellipse 165" class="cls-2" cx="1.883" cy="1.883" r="1.883" transform="translate(740 2247.58)"/>
          </g>
          <g id="Group_50" data-name="Group 50" transform="translate(6.173)">
            <circle id="Ellipse_49" data-name="Ellipse 49" class="cls-2" cx="1.883" cy="1.883" r="1.883" transform="translate(817.827 2403.234)"/>
            <circle id="Ellipse_61" data-name="Ellipse 61" class="cls-2" cx="1.883" cy="1.883" r="1.883" transform="translate(817.827 2383.777)"/>
            <circle id="Ellipse_76" data-name="Ellipse 76" class="cls-2" cx="1.883" cy="1.883" r="1.883" transform="translate(817.827 2364.321)"/>
            <circle id="Ellipse_91" data-name="Ellipse 91" class="cls-2" cx="1.883" cy="1.883" r="1.883" transform="translate(817.827 2344.864)"/>
            <circle id="Ellipse_106" data-name="Ellipse 106" class="cls-2" cx="1.883" cy="1.883" r="1.883" transform="translate(817.827 2325.407)"/>
            <circle id="Ellipse_121" data-name="Ellipse 121" class="cls-2" cx="1.883" cy="1.883" r="1.883" transform="translate(817.827 2305.95)"/>
            <circle id="Ellipse_136" data-name="Ellipse 136" class="cls-2" cx="1.883" cy="1.883" r="1.883" transform="translate(817.827 2286.493)"/>
            <circle id="Ellipse_151" data-name="Ellipse 151" class="cls-2" cx="1.883" cy="1.883" r="1.883" transform="translate(817.827 2267.037)"/>
            <circle id="Ellipse_166" data-name="Ellipse 166" class="cls-2" cx="1.883" cy="1.883" r="1.883" transform="translate(817.827 2247.58)"/>
          </g>
          <g id="Group_45" data-name="Group 45" transform="translate(14.889)">
            <circle id="Ellipse_53" data-name="Ellipse 53" class="cls-2" cx="1.883" cy="1.883" r="1.883" transform="translate(915.111 2403.234)"/>
            <circle id="Ellipse_62" data-name="Ellipse 62" class="cls-2" cx="1.883" cy="1.883" r="1.883" transform="translate(915.111 2383.777)"/>
            <circle id="Ellipse_77" data-name="Ellipse 77" class="cls-2" cx="1.883" cy="1.883" r="1.883" transform="translate(915.111 2364.321)"/>
            <circle id="Ellipse_92" data-name="Ellipse 92" class="cls-2" cx="1.883" cy="1.883" r="1.883" transform="translate(915.111 2344.864)"/>
            <circle id="Ellipse_107" data-name="Ellipse 107" class="cls-2" cx="1.883" cy="1.883" r="1.883" transform="translate(915.111 2325.407)"/>
            <circle id="Ellipse_122" data-name="Ellipse 122" class="cls-2" cx="1.883" cy="1.883" r="1.883" transform="translate(915.111 2305.95)"/>
            <circle id="Ellipse_137" data-name="Ellipse 137" class="cls-2" cx="1.883" cy="1.883" r="1.883" transform="translate(915.111 2286.493)"/>
            <circle id="Ellipse_152" data-name="Ellipse 152" class="cls-2" cx="1.883" cy="1.883" r="1.883" transform="translate(915.111 2267.037)"/>
            <circle id="Ellipse_167" data-name="Ellipse 167" class="cls-2" cx="1.883" cy="1.883" r="1.883" transform="translate(915.111 2247.58)"/>
          </g>
          <g id="Group_52" data-name="Group 52" transform="translate(3.086)">
            <circle id="Ellipse_47" data-name="Ellipse 47" class="cls-2" cx="1.883" cy="1.883" r="1.883" transform="translate(778.914 2403.234)"/>
            <circle id="Ellipse_63" data-name="Ellipse 63" class="cls-2" cx="1.883" cy="1.883" r="1.883" transform="translate(778.914 2383.777)"/>
            <circle id="Ellipse_78" data-name="Ellipse 78" class="cls-2" cx="1.883" cy="1.883" r="1.883" transform="translate(778.914 2364.321)"/>
            <circle id="Ellipse_93" data-name="Ellipse 93" class="cls-2" cx="1.883" cy="1.883" r="1.883" transform="translate(778.914 2344.864)"/>
            <circle id="Ellipse_108" data-name="Ellipse 108" class="cls-2" cx="1.883" cy="1.883" r="1.883" transform="translate(778.914 2325.407)"/>
            <circle id="Ellipse_123" data-name="Ellipse 123" class="cls-2" cx="1.883" cy="1.883" r="1.883" transform="translate(778.914 2305.95)"/>
            <circle id="Ellipse_138" data-name="Ellipse 138" class="cls-2" cx="1.883" cy="1.883" r="1.883" transform="translate(778.914 2286.493)"/>
            <circle id="Ellipse_153" data-name="Ellipse 153" class="cls-2" cx="1.883" cy="1.883" r="1.883" transform="translate(778.914 2267.037)"/>
            <circle id="Ellipse_168" data-name="Ellipse 168" class="cls-2" cx="1.883" cy="1.883" r="1.883" transform="translate(778.914 2247.58)"/>
          </g>
          <g id="Group_48" data-name="Group 48" transform="translate(10.259)">
            <circle id="Ellipse_51" data-name="Ellipse 51" class="cls-2" cx="1.883" cy="1.883" r="1.883" transform="translate(856.741 2403.234)"/>
            <circle id="Ellipse_64" data-name="Ellipse 64" class="cls-2" cx="1.883" cy="1.883" r="1.883" transform="translate(856.741 2383.777)"/>
            <circle id="Ellipse_79" data-name="Ellipse 79" class="cls-2" cx="1.883" cy="1.883" r="1.883" transform="translate(856.741 2364.321)"/>
            <circle id="Ellipse_94" data-name="Ellipse 94" class="cls-2" cx="1.883" cy="1.883" r="1.883" transform="translate(856.741 2344.864)"/>
            <circle id="Ellipse_109" data-name="Ellipse 109" class="cls-2" cx="1.883" cy="1.883" r="1.883" transform="translate(856.741 2325.407)"/>
            <circle id="Ellipse_124" data-name="Ellipse 124" class="cls-2" cx="1.883" cy="1.883" r="1.883" transform="translate(856.741 2305.95)"/>
            <circle id="Ellipse_139" data-name="Ellipse 139" class="cls-2" cx="1.883" cy="1.883" r="1.883" transform="translate(856.741 2286.493)"/>
            <circle id="Ellipse_154" data-name="Ellipse 154" class="cls-2" cx="1.883" cy="1.883" r="1.883" transform="translate(856.741 2267.037)"/>
            <circle id="Ellipse_169" data-name="Ellipse 169" class="cls-2" cx="1.883" cy="1.883" r="1.883" transform="translate(856.741 2247.58)"/>
          </g>
          <g id="Group_43" data-name="Group 43" transform="translate(17.975)">
            <circle id="Ellipse_54" data-name="Ellipse 54" class="cls-2" cx="1.883" cy="1.883" r="1.883" transform="translate(954.025 2403.234)"/>
            <circle id="Ellipse_65" data-name="Ellipse 65" class="cls-2" cx="1.883" cy="1.883" r="1.883" transform="translate(954.025 2383.777)"/>
            <circle id="Ellipse_80" data-name="Ellipse 80" class="cls-2" cx="1.883" cy="1.883" r="1.883" transform="translate(954.025 2364.321)"/>
            <circle id="Ellipse_95" data-name="Ellipse 95" class="cls-2" cx="1.883" cy="1.883" r="1.883" transform="translate(954.025 2344.864)"/>
            <circle id="Ellipse_110" data-name="Ellipse 110" class="cls-2" cx="1.883" cy="1.883" r="1.883" transform="translate(954.025 2325.407)"/>
            <circle id="Ellipse_125" data-name="Ellipse 125" class="cls-2" cx="1.883" cy="1.883" r="1.883" transform="translate(954.025 2305.95)"/>
            <circle id="Ellipse_140" data-name="Ellipse 140" class="cls-2" cx="1.883" cy="1.883" r="1.883" transform="translate(954.025 2286.493)"/>
            <circle id="Ellipse_155" data-name="Ellipse 155" class="cls-2" cx="1.883" cy="1.883" r="1.883" transform="translate(954.025 2267.037)"/>
            <circle id="Ellipse_170" data-name="Ellipse 170" class="cls-2" cx="1.883" cy="1.883" r="1.883" transform="translate(954.025 2247.58)"/>
          </g>
          <g id="Group_41" data-name="Group 41" transform="translate(21.062)">
            <circle id="Ellipse_58" data-name="Ellipse 58" class="cls-2" cx="1.883" cy="1.883" r="1.883" transform="translate(992.938 2403.234)"/>
            <circle id="Ellipse_73" data-name="Ellipse 73" class="cls-2" cx="1.883" cy="1.883" r="1.883" transform="translate(992.938 2383.777)"/>
            <circle id="Ellipse_88" data-name="Ellipse 88" class="cls-2" cx="1.883" cy="1.883" r="1.883" transform="translate(992.938 2364.321)"/>
            <circle id="Ellipse_103" data-name="Ellipse 103" class="cls-2" cx="1.883" cy="1.883" r="1.883" transform="translate(992.938 2344.864)"/>
            <circle id="Ellipse_118" data-name="Ellipse 118" class="cls-2" cx="1.883" cy="1.883" r="1.883" transform="translate(992.938 2325.407)"/>
            <circle id="Ellipse_133" data-name="Ellipse 133" class="cls-2" cx="1.883" cy="1.883" r="1.883" transform="translate(992.938 2305.95)"/>
            <circle id="Ellipse_148" data-name="Ellipse 148" class="cls-2" cx="1.883" cy="1.883" r="1.883" transform="translate(992.938 2286.493)"/>
            <circle id="Ellipse_163" data-name="Ellipse 163" class="cls-2" cx="1.883" cy="1.883" r="1.883" transform="translate(992.938 2267.037)"/>
            <circle id="Ellipse_178" data-name="Ellipse 178" class="cls-2" cx="1.883" cy="1.883" r="1.883" transform="translate(992.938 2247.58)"/>
          </g>
          <g id="Group_53" data-name="Group 53" transform="translate(1.543)">
            <circle id="Ellipse_46" data-name="Ellipse 46" class="cls-2" cx="1.883" cy="1.883" r="1.883" transform="translate(759.457 2403.234)"/>
            <circle id="Ellipse_66" data-name="Ellipse 66" class="cls-2" cx="1.883" cy="1.883" r="1.883" transform="translate(759.457 2383.777)"/>
            <circle id="Ellipse_81" data-name="Ellipse 81" class="cls-2" cx="1.883" cy="1.883" r="1.883" transform="translate(759.457 2364.321)"/>
            <circle id="Ellipse_96" data-name="Ellipse 96" class="cls-2" cx="1.883" cy="1.883" r="1.883" transform="translate(759.457 2344.864)"/>
            <circle id="Ellipse_111" data-name="Ellipse 111" class="cls-2" cx="1.883" cy="1.883" r="1.883" transform="translate(759.457 2325.407)"/>
            <circle id="Ellipse_126" data-name="Ellipse 126" class="cls-2" cx="1.883" cy="1.883" r="1.883" transform="translate(759.457 2305.95)"/>
            <circle id="Ellipse_141" data-name="Ellipse 141" class="cls-2" cx="1.883" cy="1.883" r="1.883" transform="translate(759.457 2286.493)"/>
            <circle id="Ellipse_156" data-name="Ellipse 156" class="cls-2" cx="1.883" cy="1.883" r="1.883" transform="translate(759.457 2267.037)"/>
            <circle id="Ellipse_171" data-name="Ellipse 171" class="cls-2" cx="1.883" cy="1.883" r="1.883" transform="translate(759.457 2247.58)"/>
          </g>
          <g id="Group_49" data-name="Group 49" transform="translate(7.716)">
            <circle id="Ellipse_50" data-name="Ellipse 50" class="cls-2" cx="1.883" cy="1.883" r="1.883" transform="translate(837.284 2403.234)"/>
            <circle id="Ellipse_67" data-name="Ellipse 67" class="cls-2" cx="1.883" cy="1.883" r="1.883" transform="translate(837.284 2383.777)"/>
            <circle id="Ellipse_82" data-name="Ellipse 82" class="cls-2" cx="1.883" cy="1.883" r="1.883" transform="translate(837.284 2364.321)"/>
            <circle id="Ellipse_97" data-name="Ellipse 97" class="cls-2" cx="1.883" cy="1.883" r="1.883" transform="translate(837.284 2344.864)"/>
            <circle id="Ellipse_112" data-name="Ellipse 112" class="cls-2" cx="1.883" cy="1.883" r="1.883" transform="translate(837.284 2325.407)"/>
            <circle id="Ellipse_127" data-name="Ellipse 127" class="cls-2" cx="1.883" cy="1.883" r="1.883" transform="translate(837.284 2305.95)"/>
            <circle id="Ellipse_142" data-name="Ellipse 142" class="cls-2" cx="1.883" cy="1.883" r="1.883" transform="translate(837.284 2286.493)"/>
            <circle id="Ellipse_157" data-name="Ellipse 157" class="cls-2" cx="1.883" cy="1.883" r="1.883" transform="translate(837.284 2267.037)"/>
            <circle id="Ellipse_172" data-name="Ellipse 172" class="cls-2" cx="1.883" cy="1.883" r="1.883" transform="translate(837.284 2247.58)"/>
          </g>
          <g id="Group_44" data-name="Group 44" transform="translate(16.432)">
            <circle id="Ellipse_55" data-name="Ellipse 55" class="cls-2" cx="1.883" cy="1.883" r="1.883" transform="translate(934.568 2403.234)"/>
            <circle id="Ellipse_68" data-name="Ellipse 68" class="cls-2" cx="1.883" cy="1.883" r="1.883" transform="translate(934.568 2383.777)"/>
            <circle id="Ellipse_83" data-name="Ellipse 83" class="cls-2" cx="1.883" cy="1.883" r="1.883" transform="translate(934.568 2364.321)"/>
            <circle id="Ellipse_98" data-name="Ellipse 98" class="cls-2" cx="1.883" cy="1.883" r="1.883" transform="translate(934.568 2344.864)"/>
            <circle id="Ellipse_113" data-name="Ellipse 113" class="cls-2" cx="1.883" cy="1.883" r="1.883" transform="translate(934.568 2325.407)"/>
            <circle id="Ellipse_128" data-name="Ellipse 128" class="cls-2" cx="1.883" cy="1.883" r="1.883" transform="translate(934.568 2305.95)"/>
            <circle id="Ellipse_143" data-name="Ellipse 143" class="cls-2" cx="1.883" cy="1.883" r="1.883" transform="translate(934.568 2286.493)"/>
            <circle id="Ellipse_158" data-name="Ellipse 158" class="cls-2" cx="1.883" cy="1.883" r="1.883" transform="translate(934.568 2267.037)"/>
            <circle id="Ellipse_173" data-name="Ellipse 173" class="cls-2" cx="1.883" cy="1.883" r="1.883" transform="translate(934.568 2247.58)"/>
          </g>
          <g id="Group_51" data-name="Group 51" transform="translate(4.63)">
            <circle id="Ellipse_48" data-name="Ellipse 48" class="cls-2" cx="1.883" cy="1.883" r="1.883" transform="translate(798.37 2403.234)"/>
            <circle id="Ellipse_69" data-name="Ellipse 69" class="cls-2" cx="1.883" cy="1.883" r="1.883" transform="translate(798.37 2383.777)"/>
            <circle id="Ellipse_84" data-name="Ellipse 84" class="cls-2" cx="1.883" cy="1.883" r="1.883" transform="translate(798.37 2364.321)"/>
            <circle id="Ellipse_99" data-name="Ellipse 99" class="cls-2" cx="1.883" cy="1.883" r="1.883" transform="translate(798.37 2344.864)"/>
            <circle id="Ellipse_114" data-name="Ellipse 114" class="cls-2" cx="1.883" cy="1.883" r="1.883" transform="translate(798.37 2325.407)"/>
            <circle id="Ellipse_129" data-name="Ellipse 129" class="cls-2" cx="1.883" cy="1.883" r="1.883" transform="translate(798.37 2305.95)"/>
            <circle id="Ellipse_144" data-name="Ellipse 144" class="cls-2" cx="1.883" cy="1.883" r="1.883" transform="translate(798.37 2286.493)"/>
            <circle id="Ellipse_159" data-name="Ellipse 159" class="cls-2" cx="1.883" cy="1.883" r="1.883" transform="translate(798.37 2267.037)"/>
            <circle id="Ellipse_174" data-name="Ellipse 174" class="cls-2" cx="1.883" cy="1.883" r="1.883" transform="translate(798.37 2247.58)"/>
          </g>
          <g id="Group_46" data-name="Group 46" transform="translate(13.345)">
            <circle id="Ellipse_56" data-name="Ellipse 56" class="cls-2" cx="1.883" cy="1.883" r="1.883" transform="translate(895.655 2403.234)"/>
            <circle id="Ellipse_70" data-name="Ellipse 70" class="cls-2" cx="1.883" cy="1.883" r="1.883" transform="translate(895.655 2383.777)"/>
            <circle id="Ellipse_85" data-name="Ellipse 85" class="cls-2" cx="1.883" cy="1.883" r="1.883" transform="translate(895.655 2364.321)"/>
            <circle id="Ellipse_100" data-name="Ellipse 100" class="cls-2" cx="1.883" cy="1.883" r="1.883" transform="translate(895.655 2344.864)"/>
            <circle id="Ellipse_115" data-name="Ellipse 115" class="cls-2" cx="1.883" cy="1.883" r="1.883" transform="translate(895.655 2325.407)"/>
            <circle id="Ellipse_130" data-name="Ellipse 130" class="cls-2" cx="1.883" cy="1.883" r="1.883" transform="translate(895.655 2305.95)"/>
            <circle id="Ellipse_145" data-name="Ellipse 145" class="cls-2" cx="1.883" cy="1.883" r="1.883" transform="translate(895.655 2286.493)"/>
            <circle id="Ellipse_160" data-name="Ellipse 160" class="cls-2" cx="1.883" cy="1.883" r="1.883" transform="translate(895.655 2267.037)"/>
            <circle id="Ellipse_175" data-name="Ellipse 175" class="cls-2" cx="1.883" cy="1.883" r="1.883" transform="translate(895.655 2247.58)"/>
          </g>
          <g id="Group_47" data-name="Group 47" transform="translate(11.802)">
            <circle id="Ellipse_52" data-name="Ellipse 52" class="cls-2" cx="1.883" cy="1.883" r="1.883" transform="translate(876.198 2403.234)"/>
            <circle id="Ellipse_71" data-name="Ellipse 71" class="cls-2" cx="1.883" cy="1.883" r="1.883" transform="translate(876.198 2383.777)"/>
            <circle id="Ellipse_86" data-name="Ellipse 86" class="cls-2" cx="1.883" cy="1.883" r="1.883" transform="translate(876.198 2364.321)"/>
            <circle id="Ellipse_101" data-name="Ellipse 101" class="cls-2" cx="1.883" cy="1.883" r="1.883" transform="translate(876.198 2344.864)"/>
            <circle id="Ellipse_116" data-name="Ellipse 116" class="cls-2" cx="1.883" cy="1.883" r="1.883" transform="translate(876.198 2325.407)"/>
            <circle id="Ellipse_131" data-name="Ellipse 131" class="cls-2" cx="1.883" cy="1.883" r="1.883" transform="translate(876.198 2305.95)"/>
            <circle id="Ellipse_146" data-name="Ellipse 146" class="cls-2" cx="1.883" cy="1.883" r="1.883" transform="translate(876.198 2286.493)"/>
            <circle id="Ellipse_161" data-name="Ellipse 161" class="cls-2" cx="1.883" cy="1.883" r="1.883" transform="translate(876.198 2267.037)"/>
            <circle id="Ellipse_176" data-name="Ellipse 176" class="cls-2" cx="1.883" cy="1.883" r="1.883" transform="translate(876.198 2247.58)"/>
          </g>
          <g id="Group_42" data-name="Group 42" transform="translate(19.518)">
            <circle id="Ellipse_57" data-name="Ellipse 57" class="cls-2" cx="1.883" cy="1.883" r="1.883" transform="translate(973.482 2403.234)"/>
            <circle id="Ellipse_72" data-name="Ellipse 72" class="cls-2" cx="1.883" cy="1.883" r="1.883" transform="translate(973.482 2383.777)"/>
            <circle id="Ellipse_87" data-name="Ellipse 87" class="cls-2" cx="1.883" cy="1.883" r="1.883" transform="translate(973.482 2364.321)"/>
            <circle id="Ellipse_102" data-name="Ellipse 102" class="cls-2" cx="1.883" cy="1.883" r="1.883" transform="translate(973.482 2344.864)"/>
            <circle id="Ellipse_117" data-name="Ellipse 117" class="cls-2" cx="1.883" cy="1.883" r="1.883" transform="translate(973.482 2325.407)"/>
            <circle id="Ellipse_132" data-name="Ellipse 132" class="cls-2" cx="1.883" cy="1.883" r="1.883" transform="translate(973.482 2305.95)"/>
            <circle id="Ellipse_147" data-name="Ellipse 147" class="cls-2" cx="1.883" cy="1.883" r="1.883" transform="translate(973.482 2286.493)"/>
            <circle id="Ellipse_162" data-name="Ellipse 162" class="cls-2" cx="1.883" cy="1.883" r="1.883" transform="translate(973.482 2267.037)"/>
            <circle id="Ellipse_177" data-name="Ellipse 177" class="cls-2" cx="1.883" cy="1.883" r="1.883" transform="translate(973.482 2247.58)"/>
          </g>
          <g id="Group_40" data-name="Group 40" transform="translate(-0.395)">
            <circle id="Ellipse_59" data-name="Ellipse 59" class="cls-2" cx="1.883" cy="1.883" r="1.883" transform="translate(1035.395 2403.234)"/>
            <circle id="Ellipse_74" data-name="Ellipse 74" class="cls-2" cx="1.883" cy="1.883" r="1.883" transform="translate(1035.395 2383.777)"/>
            <circle id="Ellipse_89" data-name="Ellipse 89" class="cls-2" cx="1.883" cy="1.883" r="1.883" transform="translate(1035.395 2364.321)"/>
            <circle id="Ellipse_104" data-name="Ellipse 104" class="cls-2" cx="1.883" cy="1.883" r="1.883" transform="translate(1035.395 2344.864)"/>
            <circle id="Ellipse_119" data-name="Ellipse 119" class="cls-2" cx="1.883" cy="1.883" r="1.883" transform="translate(1035.395 2325.407)"/>
            <circle id="Ellipse_134" data-name="Ellipse 134" class="cls-2" cx="1.883" cy="1.883" r="1.883" transform="translate(1035.395 2305.95)"/>
            <circle id="Ellipse_149" data-name="Ellipse 149" class="cls-2" cx="1.883" cy="1.883" r="1.883" transform="translate(1035.395 2286.493)"/>
            <circle id="Ellipse_164" data-name="Ellipse 164" class="cls-2" cx="1.883" cy="1.883" r="1.883" transform="translate(1035.395 2267.037)"/>
            <circle id="Ellipse_179" data-name="Ellipse 179" class="cls-2" cx="1.883" cy="1.883" r="1.883" transform="translate(1035.395 2247.58)"/>
          </g>
        </g>
        <g id="Group_56" data-name="Group 56">
          <g id="Group_54-2" data-name="Group 54" transform="translate(267 -1114)">
            <circle id="Ellipse_45-2" data-name="Ellipse 45" class="cls-2" cx="1.883" cy="1.883" r="1.883" transform="translate(740 2403.234)"/>
            <circle id="Ellipse_60-2" data-name="Ellipse 60" class="cls-2" cx="1.883" cy="1.883" r="1.883" transform="translate(740 2383.777)"/>
            <circle id="Ellipse_75-2" data-name="Ellipse 75" class="cls-2" cx="1.883" cy="1.883" r="1.883" transform="translate(740 2364.321)"/>
            <circle id="Ellipse_90-2" data-name="Ellipse 90" class="cls-2" cx="1.883" cy="1.883" r="1.883" transform="translate(740 2344.864)"/>
            <circle id="Ellipse_105-2" data-name="Ellipse 105" class="cls-2" cx="1.883" cy="1.883" r="1.883" transform="translate(740 2325.407)"/>
            <circle id="Ellipse_120-2" data-name="Ellipse 120" class="cls-2" cx="1.883" cy="1.883" r="1.883" transform="translate(740 2305.95)"/>
            <circle id="Ellipse_135-2" data-name="Ellipse 135" class="cls-2" cx="1.883" cy="1.883" r="1.883" transform="translate(740 2286.493)"/>
            <circle id="Ellipse_150-2" data-name="Ellipse 150" class="cls-2" cx="1.883" cy="1.883" r="1.883" transform="translate(740 2267.037)"/>
            <circle id="Ellipse_165-2" data-name="Ellipse 165" class="cls-2" cx="1.883" cy="1.883" r="1.883" transform="translate(740 2247.58)"/>
          </g>
          <g id="Group_50-2" data-name="Group 50" transform="translate(273.173 -1114)">
            <circle id="Ellipse_49-2" data-name="Ellipse 49" class="cls-2" cx="1.883" cy="1.883" r="1.883" transform="translate(817.827 2403.234)"/>
            <circle id="Ellipse_61-2" data-name="Ellipse 61" class="cls-2" cx="1.883" cy="1.883" r="1.883" transform="translate(817.827 2383.777)"/>
            <circle id="Ellipse_76-2" data-name="Ellipse 76" class="cls-2" cx="1.883" cy="1.883" r="1.883" transform="translate(817.827 2364.321)"/>
            <circle id="Ellipse_91-2" data-name="Ellipse 91" class="cls-2" cx="1.883" cy="1.883" r="1.883" transform="translate(817.827 2344.864)"/>
            <circle id="Ellipse_106-2" data-name="Ellipse 106" class="cls-2" cx="1.883" cy="1.883" r="1.883" transform="translate(817.827 2325.407)"/>
            <circle id="Ellipse_121-2" data-name="Ellipse 121" class="cls-2" cx="1.883" cy="1.883" r="1.883" transform="translate(817.827 2305.95)"/>
            <circle id="Ellipse_136-2" data-name="Ellipse 136" class="cls-2" cx="1.883" cy="1.883" r="1.883" transform="translate(817.827 2286.493)"/>
            <circle id="Ellipse_151-2" data-name="Ellipse 151" class="cls-2" cx="1.883" cy="1.883" r="1.883" transform="translate(817.827 2267.037)"/>
            <circle id="Ellipse_166-2" data-name="Ellipse 166" class="cls-2" cx="1.883" cy="1.883" r="1.883" transform="translate(817.827 2247.58)"/>
          </g>
          <g id="Group_45-2" data-name="Group 45" transform="translate(281.889 -1114)">
            <circle id="Ellipse_53-2" data-name="Ellipse 53" class="cls-2" cx="1.883" cy="1.883" r="1.883" transform="translate(915.111 2403.234)"/>
            <circle id="Ellipse_62-2" data-name="Ellipse 62" class="cls-2" cx="1.883" cy="1.883" r="1.883" transform="translate(915.111 2383.777)"/>
            <circle id="Ellipse_77-2" data-name="Ellipse 77" class="cls-2" cx="1.883" cy="1.883" r="1.883" transform="translate(915.111 2364.321)"/>
            <circle id="Ellipse_92-2" data-name="Ellipse 92" class="cls-2" cx="1.883" cy="1.883" r="1.883" transform="translate(915.111 2344.864)"/>
            <circle id="Ellipse_107-2" data-name="Ellipse 107" class="cls-2" cx="1.883" cy="1.883" r="1.883" transform="translate(915.111 2325.407)"/>
            <circle id="Ellipse_122-2" data-name="Ellipse 122" class="cls-2" cx="1.883" cy="1.883" r="1.883" transform="translate(915.111 2305.95)"/>
            <circle id="Ellipse_137-2" data-name="Ellipse 137" class="cls-2" cx="1.883" cy="1.883" r="1.883" transform="translate(915.111 2286.493)"/>
            <circle id="Ellipse_152-2" data-name="Ellipse 152" class="cls-2" cx="1.883" cy="1.883" r="1.883" transform="translate(915.111 2267.037)"/>
            <circle id="Ellipse_167-2" data-name="Ellipse 167" class="cls-2" cx="1.883" cy="1.883" r="1.883" transform="translate(915.111 2247.58)"/>
          </g>
          <g id="Group_52-2" data-name="Group 52" transform="translate(270.086 -1114)">
            <circle id="Ellipse_47-2" data-name="Ellipse 47" class="cls-2" cx="1.883" cy="1.883" r="1.883" transform="translate(778.914 2403.234)"/>
            <circle id="Ellipse_63-2" data-name="Ellipse 63" class="cls-2" cx="1.883" cy="1.883" r="1.883" transform="translate(778.914 2383.777)"/>
            <circle id="Ellipse_78-2" data-name="Ellipse 78" class="cls-2" cx="1.883" cy="1.883" r="1.883" transform="translate(778.914 2364.321)"/>
            <circle id="Ellipse_93-2" data-name="Ellipse 93" class="cls-2" cx="1.883" cy="1.883" r="1.883" transform="translate(778.914 2344.864)"/>
            <circle id="Ellipse_108-2" data-name="Ellipse 108" class="cls-2" cx="1.883" cy="1.883" r="1.883" transform="translate(778.914 2325.407)"/>
            <circle id="Ellipse_123-2" data-name="Ellipse 123" class="cls-2" cx="1.883" cy="1.883" r="1.883" transform="translate(778.914 2305.95)"/>
            <circle id="Ellipse_138-2" data-name="Ellipse 138" class="cls-2" cx="1.883" cy="1.883" r="1.883" transform="translate(778.914 2286.493)"/>
            <circle id="Ellipse_153-2" data-name="Ellipse 153" class="cls-2" cx="1.883" cy="1.883" r="1.883" transform="translate(778.914 2267.037)"/>
            <circle id="Ellipse_168-2" data-name="Ellipse 168" class="cls-2" cx="1.883" cy="1.883" r="1.883" transform="translate(778.914 2247.58)"/>
          </g>
          <g id="Group_48-2" data-name="Group 48" transform="translate(277.259 -1114)">
            <circle id="Ellipse_51-2" data-name="Ellipse 51" class="cls-2" cx="1.883" cy="1.883" r="1.883" transform="translate(856.741 2403.234)"/>
            <circle id="Ellipse_64-2" data-name="Ellipse 64" class="cls-2" cx="1.883" cy="1.883" r="1.883" transform="translate(856.741 2383.777)"/>
            <circle id="Ellipse_79-2" data-name="Ellipse 79" class="cls-2" cx="1.883" cy="1.883" r="1.883" transform="translate(856.741 2364.321)"/>
            <circle id="Ellipse_94-2" data-name="Ellipse 94" class="cls-2" cx="1.883" cy="1.883" r="1.883" transform="translate(856.741 2344.864)"/>
            <circle id="Ellipse_109-2" data-name="Ellipse 109" class="cls-2" cx="1.883" cy="1.883" r="1.883" transform="translate(856.741 2325.407)"/>
            <circle id="Ellipse_124-2" data-name="Ellipse 124" class="cls-2" cx="1.883" cy="1.883" r="1.883" transform="translate(856.741 2305.95)"/>
            <circle id="Ellipse_139-2" data-name="Ellipse 139" class="cls-2" cx="1.883" cy="1.883" r="1.883" transform="translate(856.741 2286.493)"/>
            <circle id="Ellipse_154-2" data-name="Ellipse 154" class="cls-2" cx="1.883" cy="1.883" r="1.883" transform="translate(856.741 2267.037)"/>
            <circle id="Ellipse_169-2" data-name="Ellipse 169" class="cls-2" cx="1.883" cy="1.883" r="1.883" transform="translate(856.741 2247.58)"/>
          </g>
          <g id="Group_43-2" data-name="Group 43" transform="translate(284.975 -1114)">
            <circle id="Ellipse_54-2" data-name="Ellipse 54" class="cls-2" cx="1.883" cy="1.883" r="1.883" transform="translate(954.025 2403.234)"/>
            <circle id="Ellipse_65-2" data-name="Ellipse 65" class="cls-2" cx="1.883" cy="1.883" r="1.883" transform="translate(954.025 2383.777)"/>
            <circle id="Ellipse_80-2" data-name="Ellipse 80" class="cls-2" cx="1.883" cy="1.883" r="1.883" transform="translate(954.025 2364.321)"/>
            <circle id="Ellipse_95-2" data-name="Ellipse 95" class="cls-2" cx="1.883" cy="1.883" r="1.883" transform="translate(954.025 2344.864)"/>
            <circle id="Ellipse_110-2" data-name="Ellipse 110" class="cls-2" cx="1.883" cy="1.883" r="1.883" transform="translate(954.025 2325.407)"/>
            <circle id="Ellipse_125-2" data-name="Ellipse 125" class="cls-2" cx="1.883" cy="1.883" r="1.883" transform="translate(954.025 2305.95)"/>
            <circle id="Ellipse_140-2" data-name="Ellipse 140" class="cls-2" cx="1.883" cy="1.883" r="1.883" transform="translate(954.025 2286.493)"/>
            <circle id="Ellipse_155-2" data-name="Ellipse 155" class="cls-2" cx="1.883" cy="1.883" r="1.883" transform="translate(954.025 2267.037)"/>
            <circle id="Ellipse_170-2" data-name="Ellipse 170" class="cls-2" cx="1.883" cy="1.883" r="1.883" transform="translate(954.025 2247.58)"/>
          </g>
          <g id="Group_53-2" data-name="Group 53" transform="translate(268.543 -1114)">
            <circle id="Ellipse_46-2" data-name="Ellipse 46" class="cls-2" cx="1.883" cy="1.883" r="1.883" transform="translate(759.457 2403.234)"/>
            <circle id="Ellipse_66-2" data-name="Ellipse 66" class="cls-2" cx="1.883" cy="1.883" r="1.883" transform="translate(759.457 2383.777)"/>
            <circle id="Ellipse_81-2" data-name="Ellipse 81" class="cls-2" cx="1.883" cy="1.883" r="1.883" transform="translate(759.457 2364.321)"/>
            <circle id="Ellipse_96-2" data-name="Ellipse 96" class="cls-2" cx="1.883" cy="1.883" r="1.883" transform="translate(759.457 2344.864)"/>
            <circle id="Ellipse_111-2" data-name="Ellipse 111" class="cls-2" cx="1.883" cy="1.883" r="1.883" transform="translate(759.457 2325.407)"/>
            <circle id="Ellipse_126-2" data-name="Ellipse 126" class="cls-2" cx="1.883" cy="1.883" r="1.883" transform="translate(759.457 2305.95)"/>
            <circle id="Ellipse_141-2" data-name="Ellipse 141" class="cls-2" cx="1.883" cy="1.883" r="1.883" transform="translate(759.457 2286.493)"/>
            <circle id="Ellipse_156-2" data-name="Ellipse 156" class="cls-2" cx="1.883" cy="1.883" r="1.883" transform="translate(759.457 2267.037)"/>
            <circle id="Ellipse_171-2" data-name="Ellipse 171" class="cls-2" cx="1.883" cy="1.883" r="1.883" transform="translate(759.457 2247.58)"/>
          </g>
          <g id="Group_49-2" data-name="Group 49" transform="translate(274.716 -1114)">
            <circle id="Ellipse_50-2" data-name="Ellipse 50" class="cls-2" cx="1.883" cy="1.883" r="1.883" transform="translate(837.284 2403.234)"/>
            <circle id="Ellipse_67-2" data-name="Ellipse 67" class="cls-2" cx="1.883" cy="1.883" r="1.883" transform="translate(837.284 2383.777)"/>
            <circle id="Ellipse_82-2" data-name="Ellipse 82" class="cls-2" cx="1.883" cy="1.883" r="1.883" transform="translate(837.284 2364.321)"/>
            <circle id="Ellipse_97-2" data-name="Ellipse 97" class="cls-2" cx="1.883" cy="1.883" r="1.883" transform="translate(837.284 2344.864)"/>
            <circle id="Ellipse_112-2" data-name="Ellipse 112" class="cls-2" cx="1.883" cy="1.883" r="1.883" transform="translate(837.284 2325.407)"/>
            <circle id="Ellipse_127-2" data-name="Ellipse 127" class="cls-2" cx="1.883" cy="1.883" r="1.883" transform="translate(837.284 2305.95)"/>
            <circle id="Ellipse_142-2" data-name="Ellipse 142" class="cls-2" cx="1.883" cy="1.883" r="1.883" transform="translate(837.284 2286.493)"/>
            <circle id="Ellipse_157-2" data-name="Ellipse 157" class="cls-2" cx="1.883" cy="1.883" r="1.883" transform="translate(837.284 2267.037)"/>
            <circle id="Ellipse_172-2" data-name="Ellipse 172" class="cls-2" cx="1.883" cy="1.883" r="1.883" transform="translate(837.284 2247.58)"/>
          </g>
          <g id="Group_44-2" data-name="Group 44" transform="translate(283.432 -1114)">
            <circle id="Ellipse_55-2" data-name="Ellipse 55" class="cls-2" cx="1.883" cy="1.883" r="1.883" transform="translate(934.568 2403.234)"/>
            <circle id="Ellipse_68-2" data-name="Ellipse 68" class="cls-2" cx="1.883" cy="1.883" r="1.883" transform="translate(934.568 2383.777)"/>
            <circle id="Ellipse_83-2" data-name="Ellipse 83" class="cls-2" cx="1.883" cy="1.883" r="1.883" transform="translate(934.568 2364.321)"/>
            <circle id="Ellipse_98-2" data-name="Ellipse 98" class="cls-2" cx="1.883" cy="1.883" r="1.883" transform="translate(934.568 2344.864)"/>
            <circle id="Ellipse_113-2" data-name="Ellipse 113" class="cls-2" cx="1.883" cy="1.883" r="1.883" transform="translate(934.568 2325.407)"/>
            <circle id="Ellipse_128-2" data-name="Ellipse 128" class="cls-2" cx="1.883" cy="1.883" r="1.883" transform="translate(934.568 2305.95)"/>
            <circle id="Ellipse_143-2" data-name="Ellipse 143" class="cls-2" cx="1.883" cy="1.883" r="1.883" transform="translate(934.568 2286.493)"/>
            <circle id="Ellipse_158-2" data-name="Ellipse 158" class="cls-2" cx="1.883" cy="1.883" r="1.883" transform="translate(934.568 2267.037)"/>
            <circle id="Ellipse_173-2" data-name="Ellipse 173" class="cls-2" cx="1.883" cy="1.883" r="1.883" transform="translate(934.568 2247.58)"/>
          </g>
          <g id="Group_51-2" data-name="Group 51" transform="translate(271.63 -1114)">
            <circle id="Ellipse_48-2" data-name="Ellipse 48" class="cls-2" cx="1.883" cy="1.883" r="1.883" transform="translate(798.37 2403.234)"/>
            <circle id="Ellipse_69-2" data-name="Ellipse 69" class="cls-2" cx="1.883" cy="1.883" r="1.883" transform="translate(798.37 2383.777)"/>
            <circle id="Ellipse_84-2" data-name="Ellipse 84" class="cls-2" cx="1.883" cy="1.883" r="1.883" transform="translate(798.37 2364.321)"/>
            <circle id="Ellipse_99-2" data-name="Ellipse 99" class="cls-2" cx="1.883" cy="1.883" r="1.883" transform="translate(798.37 2344.864)"/>
            <circle id="Ellipse_114-2" data-name="Ellipse 114" class="cls-2" cx="1.883" cy="1.883" r="1.883" transform="translate(798.37 2325.407)"/>
            <circle id="Ellipse_129-2" data-name="Ellipse 129" class="cls-2" cx="1.883" cy="1.883" r="1.883" transform="translate(798.37 2305.95)"/>
            <circle id="Ellipse_144-2" data-name="Ellipse 144" class="cls-2" cx="1.883" cy="1.883" r="1.883" transform="translate(798.37 2286.493)"/>
            <circle id="Ellipse_159-2" data-name="Ellipse 159" class="cls-2" cx="1.883" cy="1.883" r="1.883" transform="translate(798.37 2267.037)"/>
            <circle id="Ellipse_174-2" data-name="Ellipse 174" class="cls-2" cx="1.883" cy="1.883" r="1.883" transform="translate(798.37 2247.58)"/>
          </g>
          <g id="Group_46-2" data-name="Group 46" transform="translate(280.345 -1114)">
            <circle id="Ellipse_56-2" data-name="Ellipse 56" class="cls-2" cx="1.883" cy="1.883" r="1.883" transform="translate(895.655 2403.234)"/>
            <circle id="Ellipse_70-2" data-name="Ellipse 70" class="cls-2" cx="1.883" cy="1.883" r="1.883" transform="translate(895.655 2383.777)"/>
            <circle id="Ellipse_85-2" data-name="Ellipse 85" class="cls-2" cx="1.883" cy="1.883" r="1.883" transform="translate(895.655 2364.321)"/>
            <circle id="Ellipse_100-2" data-name="Ellipse 100" class="cls-2" cx="1.883" cy="1.883" r="1.883" transform="translate(895.655 2344.864)"/>
            <circle id="Ellipse_115-2" data-name="Ellipse 115" class="cls-2" cx="1.883" cy="1.883" r="1.883" transform="translate(895.655 2325.407)"/>
            <circle id="Ellipse_130-2" data-name="Ellipse 130" class="cls-2" cx="1.883" cy="1.883" r="1.883" transform="translate(895.655 2305.95)"/>
            <circle id="Ellipse_145-2" data-name="Ellipse 145" class="cls-2" cx="1.883" cy="1.883" r="1.883" transform="translate(895.655 2286.493)"/>
            <circle id="Ellipse_160-2" data-name="Ellipse 160" class="cls-2" cx="1.883" cy="1.883" r="1.883" transform="translate(895.655 2267.037)"/>
            <circle id="Ellipse_175-2" data-name="Ellipse 175" class="cls-2" cx="1.883" cy="1.883" r="1.883" transform="translate(895.655 2247.58)"/>
          </g>
          <g id="Group_47-2" data-name="Group 47" transform="translate(278.802 -1114)">
            <circle id="Ellipse_52-2" data-name="Ellipse 52" class="cls-2" cx="1.883" cy="1.883" r="1.883" transform="translate(876.198 2403.234)"/>
            <circle id="Ellipse_71-2" data-name="Ellipse 71" class="cls-2" cx="1.883" cy="1.883" r="1.883" transform="translate(876.198 2383.777)"/>
            <circle id="Ellipse_86-2" data-name="Ellipse 86" class="cls-2" cx="1.883" cy="1.883" r="1.883" transform="translate(876.198 2364.321)"/>
            <circle id="Ellipse_101-2" data-name="Ellipse 101" class="cls-2" cx="1.883" cy="1.883" r="1.883" transform="translate(876.198 2344.864)"/>
            <circle id="Ellipse_116-2" data-name="Ellipse 116" class="cls-2" cx="1.883" cy="1.883" r="1.883" transform="translate(876.198 2325.407)"/>
            <circle id="Ellipse_131-2" data-name="Ellipse 131" class="cls-2" cx="1.883" cy="1.883" r="1.883" transform="translate(876.198 2305.95)"/>
            <circle id="Ellipse_146-2" data-name="Ellipse 146" class="cls-2" cx="1.883" cy="1.883" r="1.883" transform="translate(876.198 2286.493)"/>
            <circle id="Ellipse_161-2" data-name="Ellipse 161" class="cls-2" cx="1.883" cy="1.883" r="1.883" transform="translate(876.198 2267.037)"/>
            <circle id="Ellipse_176-2" data-name="Ellipse 176" class="cls-2" cx="1.883" cy="1.883" r="1.883" transform="translate(876.198 2247.58)"/>
          </g>
        </g>
      </g>
      <circle id="Ellipse_90-3" data-name="Ellipse 90" class="cls-2" cx="1.883" cy="1.883" r="1.883" transform="translate(681 1414.864)"/>
      <circle id="Ellipse_105-3" data-name="Ellipse 105" class="cls-2" cx="1.883" cy="1.883" r="1.883" transform="translate(681 1395.407)"/>
      <circle id="Ellipse_120-3" data-name="Ellipse 120" class="cls-2" cx="1.883" cy="1.883" r="1.883" transform="translate(681 1375.95)"/>
      <circle id="Ellipse_135-3" data-name="Ellipse 135" class="cls-2" cx="1.883" cy="1.883" r="1.883" transform="translate(681 1356.493)"/>
      <circle id="Ellipse_150-3" data-name="Ellipse 150" class="cls-2" cx="1.883" cy="1.883" r="1.883" transform="translate(681 1337.037)"/>
      <circle id="Ellipse_165-3" data-name="Ellipse 165" class="cls-2" cx="1.883" cy="1.883" r="1.883" transform="translate(681 1317.58)"/>
      <circle id="Ellipse_91-3" data-name="Ellipse 91" class="cls-2" cx="1.883" cy="1.883" r="1.883" transform="translate(765 1414.864)"/>
      <circle id="Ellipse_106-3" data-name="Ellipse 106" class="cls-2" cx="1.883" cy="1.883" r="1.883" transform="translate(765 1395.407)"/>
      <circle id="Ellipse_121-3" data-name="Ellipse 121" class="cls-2" cx="1.883" cy="1.883" r="1.883" transform="translate(765 1375.95)"/>
      <circle id="Ellipse_136-3" data-name="Ellipse 136" class="cls-2" cx="1.883" cy="1.883" r="1.883" transform="translate(765 1356.493)"/>
      <circle id="Ellipse_151-3" data-name="Ellipse 151" class="cls-2" cx="1.883" cy="1.883" r="1.883" transform="translate(765 1337.037)"/>
      <circle id="Ellipse_166-3" data-name="Ellipse 166" class="cls-2" cx="1.883" cy="1.883" r="1.883" transform="translate(765 1317.58)"/>
      <circle id="Ellipse_92-3" data-name="Ellipse 92" class="cls-2" cx="1.883" cy="1.883" r="1.883" transform="translate(871 1414.864)"/>
      <circle id="Ellipse_107-3" data-name="Ellipse 107" class="cls-2" cx="1.883" cy="1.883" r="1.883" transform="translate(871 1395.407)"/>
      <circle id="Ellipse_122-3" data-name="Ellipse 122" class="cls-2" cx="1.883" cy="1.883" r="1.883" transform="translate(871 1375.95)"/>
      <circle id="Ellipse_137-3" data-name="Ellipse 137" class="cls-2" cx="1.883" cy="1.883" r="1.883" transform="translate(871 1356.493)"/>
      <circle id="Ellipse_152-3" data-name="Ellipse 152" class="cls-2" cx="1.883" cy="1.883" r="1.883" transform="translate(871 1337.037)"/>
      <circle id="Ellipse_167-3" data-name="Ellipse 167" class="cls-2" cx="1.883" cy="1.883" r="1.883" transform="translate(871 1317.58)"/>
      <circle id="Ellipse_93-3" data-name="Ellipse 93" class="cls-2" cx="1.883" cy="1.883" r="1.883" transform="translate(723 1414.864)"/>
      <circle id="Ellipse_108-3" data-name="Ellipse 108" class="cls-2" cx="1.883" cy="1.883" r="1.883" transform="translate(723 1395.407)"/>
      <circle id="Ellipse_123-3" data-name="Ellipse 123" class="cls-2" cx="1.883" cy="1.883" r="1.883" transform="translate(723 1375.95)"/>
      <circle id="Ellipse_138-3" data-name="Ellipse 138" class="cls-2" cx="1.883" cy="1.883" r="1.883" transform="translate(723 1356.493)"/>
      <circle id="Ellipse_153-3" data-name="Ellipse 153" class="cls-2" cx="1.883" cy="1.883" r="1.883" transform="translate(723 1337.037)"/>
      <circle id="Ellipse_168-3" data-name="Ellipse 168" class="cls-2" cx="1.883" cy="1.883" r="1.883" transform="translate(723 1317.58)"/>
      <circle id="Ellipse_94-3" data-name="Ellipse 94" class="cls-2" cx="1.883" cy="1.883" r="1.883" transform="translate(808 1414.864)"/>
      <circle id="Ellipse_109-3" data-name="Ellipse 109" class="cls-2" cx="1.883" cy="1.883" r="1.883" transform="translate(808 1395.407)"/>
      <circle id="Ellipse_124-3" data-name="Ellipse 124" class="cls-2" cx="1.883" cy="1.883" r="1.883" transform="translate(808 1375.95)"/>
      <circle id="Ellipse_139-3" data-name="Ellipse 139" class="cls-2" cx="1.883" cy="1.883" r="1.883" transform="translate(808 1356.493)"/>
      <circle id="Ellipse_154-3" data-name="Ellipse 154" class="cls-2" cx="1.883" cy="1.883" r="1.883" transform="translate(808 1337.037)"/>
      <circle id="Ellipse_169-3" data-name="Ellipse 169" class="cls-2" cx="1.883" cy="1.883" r="1.883" transform="translate(808 1317.58)"/>
      <circle id="Ellipse_95-3" data-name="Ellipse 95" class="cls-2" cx="1.883" cy="1.883" r="1.883" transform="translate(913 1414.864)"/>
      <circle id="Ellipse_110-3" data-name="Ellipse 110" class="cls-2" cx="1.883" cy="1.883" r="1.883" transform="translate(913 1395.407)"/>
      <circle id="Ellipse_125-3" data-name="Ellipse 125" class="cls-2" cx="1.883" cy="1.883" r="1.883" transform="translate(913 1375.95)"/>
      <circle id="Ellipse_140-3" data-name="Ellipse 140" class="cls-2" cx="1.883" cy="1.883" r="1.883" transform="translate(913 1356.493)"/>
      <circle id="Ellipse_155-3" data-name="Ellipse 155" class="cls-2" cx="1.883" cy="1.883" r="1.883" transform="translate(913 1337.037)"/>
      <circle id="Ellipse_170-3" data-name="Ellipse 170" class="cls-2" cx="1.883" cy="1.883" r="1.883" transform="translate(913 1317.58)"/>
      <circle id="Ellipse_103-2" data-name="Ellipse 103" class="cls-2" cx="1.883" cy="1.883" r="1.883" transform="translate(955 1414.864)"/>
      <circle id="Ellipse_118-2" data-name="Ellipse 118" class="cls-2" cx="1.883" cy="1.883" r="1.883" transform="translate(955 1395.407)"/>
      <circle id="Ellipse_133-2" data-name="Ellipse 133" class="cls-2" cx="1.883" cy="1.883" r="1.883" transform="translate(955 1375.95)"/>
      <circle id="Ellipse_148-2" data-name="Ellipse 148" class="cls-2" cx="1.883" cy="1.883" r="1.883" transform="translate(955 1356.493)"/>
      <circle id="Ellipse_163-2" data-name="Ellipse 163" class="cls-2" cx="1.883" cy="1.883" r="1.883" transform="translate(955 1337.037)"/>
      <circle id="Ellipse_178-2" data-name="Ellipse 178" class="cls-2" cx="1.883" cy="1.883" r="1.883" transform="translate(955 1317.58)"/>
      <circle id="Ellipse_96-3" data-name="Ellipse 96" class="cls-2" cx="1.883" cy="1.883" r="1.883" transform="translate(702 1414.864)"/>
      <circle id="Ellipse_111-3" data-name="Ellipse 111" class="cls-2" cx="1.883" cy="1.883" r="1.883" transform="translate(702 1395.407)"/>
      <circle id="Ellipse_126-3" data-name="Ellipse 126" class="cls-2" cx="1.883" cy="1.883" r="1.883" transform="translate(702 1375.95)"/>
      <circle id="Ellipse_141-3" data-name="Ellipse 141" class="cls-2" cx="1.883" cy="1.883" r="1.883" transform="translate(702 1356.493)"/>
      <circle id="Ellipse_156-3" data-name="Ellipse 156" class="cls-2" cx="1.883" cy="1.883" r="1.883" transform="translate(702 1337.037)"/>
      <circle id="Ellipse_171-3" data-name="Ellipse 171" class="cls-2" cx="1.883" cy="1.883" r="1.883" transform="translate(702 1317.58)"/>
      <circle id="Ellipse_97-3" data-name="Ellipse 97" class="cls-2" cx="1.883" cy="1.883" r="1.883" transform="translate(786 1414.864)"/>
      <circle id="Ellipse_112-3" data-name="Ellipse 112" class="cls-2" cx="1.883" cy="1.883" r="1.883" transform="translate(786 1395.407)"/>
      <circle id="Ellipse_127-3" data-name="Ellipse 127" class="cls-2" cx="1.883" cy="1.883" r="1.883" transform="translate(786 1375.95)"/>
      <circle id="Ellipse_142-3" data-name="Ellipse 142" class="cls-2" cx="1.883" cy="1.883" r="1.883" transform="translate(786 1356.493)"/>
      <circle id="Ellipse_157-3" data-name="Ellipse 157" class="cls-2" cx="1.883" cy="1.883" r="1.883" transform="translate(786 1337.037)"/>
      <circle id="Ellipse_172-3" data-name="Ellipse 172" class="cls-2" cx="1.883" cy="1.883" r="1.883" transform="translate(786 1317.58)"/>
      <circle id="Ellipse_98-3" data-name="Ellipse 98" class="cls-2" cx="1.883" cy="1.883" r="1.883" transform="translate(892 1414.864)"/>
      <circle id="Ellipse_113-3" data-name="Ellipse 113" class="cls-2" cx="1.883" cy="1.883" r="1.883" transform="translate(892 1395.407)"/>
      <circle id="Ellipse_128-3" data-name="Ellipse 128" class="cls-2" cx="1.883" cy="1.883" r="1.883" transform="translate(892 1375.95)"/>
      <circle id="Ellipse_143-3" data-name="Ellipse 143" class="cls-2" cx="1.883" cy="1.883" r="1.883" transform="translate(892 1356.493)"/>
      <circle id="Ellipse_158-3" data-name="Ellipse 158" class="cls-2" cx="1.883" cy="1.883" r="1.883" transform="translate(892 1337.037)"/>
      <circle id="Ellipse_173-3" data-name="Ellipse 173" class="cls-2" cx="1.883" cy="1.883" r="1.883" transform="translate(892 1317.58)"/>
      <circle id="Ellipse_99-3" data-name="Ellipse 99" class="cls-2" cx="1.883" cy="1.883" r="1.883" transform="translate(744 1414.864)"/>
      <circle id="Ellipse_114-3" data-name="Ellipse 114" class="cls-2" cx="1.883" cy="1.883" r="1.883" transform="translate(744 1395.407)"/>
      <circle id="Ellipse_129-3" data-name="Ellipse 129" class="cls-2" cx="1.883" cy="1.883" r="1.883" transform="translate(744 1375.95)"/>
      <circle id="Ellipse_144-3" data-name="Ellipse 144" class="cls-2" cx="1.883" cy="1.883" r="1.883" transform="translate(744 1356.493)"/>
      <circle id="Ellipse_159-3" data-name="Ellipse 159" class="cls-2" cx="1.883" cy="1.883" r="1.883" transform="translate(744 1337.037)"/>
      <circle id="Ellipse_174-3" data-name="Ellipse 174" class="cls-2" cx="1.883" cy="1.883" r="1.883" transform="translate(744 1317.58)"/>
      <circle id="Ellipse_100-3" data-name="Ellipse 100" class="cls-2" cx="1.883" cy="1.883" r="1.883" transform="translate(850 1414.864)"/>
      <circle id="Ellipse_115-3" data-name="Ellipse 115" class="cls-2" cx="1.883" cy="1.883" r="1.883" transform="translate(850 1395.407)"/>
      <circle id="Ellipse_130-3" data-name="Ellipse 130" class="cls-2" cx="1.883" cy="1.883" r="1.883" transform="translate(850 1375.95)"/>
      <circle id="Ellipse_145-3" data-name="Ellipse 145" class="cls-2" cx="1.883" cy="1.883" r="1.883" transform="translate(850 1356.493)"/>
      <circle id="Ellipse_160-3" data-name="Ellipse 160" class="cls-2" cx="1.883" cy="1.883" r="1.883" transform="translate(850 1337.037)"/>
      <circle id="Ellipse_175-3" data-name="Ellipse 175" class="cls-2" cx="1.883" cy="1.883" r="1.883" transform="translate(850 1317.58)"/>
      <circle id="Ellipse_101-3" data-name="Ellipse 101" class="cls-2" cx="1.883" cy="1.883" r="1.883" transform="translate(829 1414.864)"/>
      <circle id="Ellipse_116-3" data-name="Ellipse 116" class="cls-2" cx="1.883" cy="1.883" r="1.883" transform="translate(829 1395.407)"/>
      <circle id="Ellipse_131-3" data-name="Ellipse 131" class="cls-2" cx="1.883" cy="1.883" r="1.883" transform="translate(829 1375.95)"/>
      <circle id="Ellipse_146-3" data-name="Ellipse 146" class="cls-2" cx="1.883" cy="1.883" r="1.883" transform="translate(829 1356.493)"/>
      <circle id="Ellipse_161-3" data-name="Ellipse 161" class="cls-2" cx="1.883" cy="1.883" r="1.883" transform="translate(829 1337.037)"/>
      <circle id="Ellipse_176-3" data-name="Ellipse 176" class="cls-2" cx="1.883" cy="1.883" r="1.883" transform="translate(829 1317.58)"/>
      <circle id="Ellipse_102-2" data-name="Ellipse 102" class="cls-2" cx="1.883" cy="1.883" r="1.883" transform="translate(934 1414.864)"/>
      <circle id="Ellipse_117-2" data-name="Ellipse 117" class="cls-2" cx="1.883" cy="1.883" r="1.883" transform="translate(934 1395.407)"/>
      <circle id="Ellipse_132-2" data-name="Ellipse 132" class="cls-2" cx="1.883" cy="1.883" r="1.883" transform="translate(934 1375.95)"/>
      <circle id="Ellipse_147-2" data-name="Ellipse 147" class="cls-2" cx="1.883" cy="1.883" r="1.883" transform="translate(934 1356.493)"/>
      <circle id="Ellipse_162-2" data-name="Ellipse 162" class="cls-2" cx="1.883" cy="1.883" r="1.883" transform="translate(934 1337.037)"/>
      <circle id="Ellipse_177-2" data-name="Ellipse 177" class="cls-2" cx="1.883" cy="1.883" r="1.883" transform="translate(934 1317.58)"/>
      <circle id="Ellipse_104-2" data-name="Ellipse 104" class="cls-2" cx="1.883" cy="1.883" r="1.883" transform="translate(976 1414.864)"/>
      <circle id="Ellipse_119-2" data-name="Ellipse 119" class="cls-2" cx="1.883" cy="1.883" r="1.883" transform="translate(976 1395.407)"/>
      <circle id="Ellipse_134-2" data-name="Ellipse 134" class="cls-2" cx="1.883" cy="1.883" r="1.883" transform="translate(976 1375.95)"/>
      <circle id="Ellipse_149-2" data-name="Ellipse 149" class="cls-2" cx="1.883" cy="1.883" r="1.883" transform="translate(976 1356.493)"/>
      <circle id="Ellipse_164-2" data-name="Ellipse 164" class="cls-2" cx="1.883" cy="1.883" r="1.883" transform="translate(976 1337.037)"/>
      <circle id="Ellipse_179-2" data-name="Ellipse 179" class="cls-2" cx="1.883" cy="1.883" r="1.883" transform="translate(976 1317.58)"/>
      <circle id="Ellipse_90-4" data-name="Ellipse 90" class="cls-2" cx="1.883" cy="1.883" r="1.883" transform="translate(998 1414.864)"/>
      <circle id="Ellipse_105-4" data-name="Ellipse 105" class="cls-2" cx="1.883" cy="1.883" r="1.883" transform="translate(998 1395.407)"/>
      <circle id="Ellipse_120-4" data-name="Ellipse 120" class="cls-2" cx="1.883" cy="1.883" r="1.883" transform="translate(998 1375.95)"/>
      <circle id="Ellipse_135-4" data-name="Ellipse 135" class="cls-2" cx="1.883" cy="1.883" r="1.883" transform="translate(998 1356.493)"/>
      <circle id="Ellipse_150-4" data-name="Ellipse 150" class="cls-2" cx="1.883" cy="1.883" r="1.883" transform="translate(998 1337.037)"/>
      <circle id="Ellipse_165-4" data-name="Ellipse 165" class="cls-2" cx="1.883" cy="1.883" r="1.883" transform="translate(998 1317.58)"/>
      <circle id="Ellipse_91-4" data-name="Ellipse 91" class="cls-2" cx="1.883" cy="1.883" r="1.883" transform="translate(1082 1414.864)"/>
      <circle id="Ellipse_106-4" data-name="Ellipse 106" class="cls-2" cx="1.883" cy="1.883" r="1.883" transform="translate(1082 1395.407)"/>
      <circle id="Ellipse_121-4" data-name="Ellipse 121" class="cls-2" cx="1.883" cy="1.883" r="1.883" transform="translate(1082 1375.95)"/>
      <circle id="Ellipse_136-4" data-name="Ellipse 136" class="cls-2" cx="1.883" cy="1.883" r="1.883" transform="translate(1082 1356.493)"/>
      <circle id="Ellipse_151-4" data-name="Ellipse 151" class="cls-2" cx="1.883" cy="1.883" r="1.883" transform="translate(1082 1337.037)"/>
      <circle id="Ellipse_166-4" data-name="Ellipse 166" class="cls-2" cx="1.883" cy="1.883" r="1.883" transform="translate(1082 1317.58)"/>
      <circle id="Ellipse_92-4" data-name="Ellipse 92" class="cls-2" cx="1.883" cy="1.883" r="1.883" transform="translate(1188 1414.864)"/>
      <circle id="Ellipse_107-4" data-name="Ellipse 107" class="cls-2" cx="1.883" cy="1.883" r="1.883" transform="translate(1188 1395.407)"/>
      <circle id="Ellipse_122-4" data-name="Ellipse 122" class="cls-2" cx="1.883" cy="1.883" r="1.883" transform="translate(1188 1375.95)"/>
      <circle id="Ellipse_137-4" data-name="Ellipse 137" class="cls-2" cx="1.883" cy="1.883" r="1.883" transform="translate(1188 1356.493)"/>
      <circle id="Ellipse_152-4" data-name="Ellipse 152" class="cls-2" cx="1.883" cy="1.883" r="1.883" transform="translate(1188 1337.037)"/>
      <circle id="Ellipse_167-4" data-name="Ellipse 167" class="cls-2" cx="1.883" cy="1.883" r="1.883" transform="translate(1188 1317.58)"/>
      <circle id="Ellipse_93-4" data-name="Ellipse 93" class="cls-2" cx="1.883" cy="1.883" r="1.883" transform="translate(1040 1414.864)"/>
      <circle id="Ellipse_108-4" data-name="Ellipse 108" class="cls-2" cx="1.883" cy="1.883" r="1.883" transform="translate(1040 1395.407)"/>
      <circle id="Ellipse_123-4" data-name="Ellipse 123" class="cls-2" cx="1.883" cy="1.883" r="1.883" transform="translate(1040 1375.95)"/>
      <circle id="Ellipse_138-4" data-name="Ellipse 138" class="cls-2" cx="1.883" cy="1.883" r="1.883" transform="translate(1040 1356.493)"/>
      <circle id="Ellipse_153-4" data-name="Ellipse 153" class="cls-2" cx="1.883" cy="1.883" r="1.883" transform="translate(1040 1337.037)"/>
      <circle id="Ellipse_168-4" data-name="Ellipse 168" class="cls-2" cx="1.883" cy="1.883" r="1.883" transform="translate(1040 1317.58)"/>
      <circle id="Ellipse_94-4" data-name="Ellipse 94" class="cls-2" cx="1.883" cy="1.883" r="1.883" transform="translate(1125 1414.864)"/>
      <circle id="Ellipse_109-4" data-name="Ellipse 109" class="cls-2" cx="1.883" cy="1.883" r="1.883" transform="translate(1125 1395.407)"/>
      <circle id="Ellipse_124-4" data-name="Ellipse 124" class="cls-2" cx="1.883" cy="1.883" r="1.883" transform="translate(1125 1375.95)"/>
      <circle id="Ellipse_139-4" data-name="Ellipse 139" class="cls-2" cx="1.883" cy="1.883" r="1.883" transform="translate(1125 1356.493)"/>
      <circle id="Ellipse_154-4" data-name="Ellipse 154" class="cls-2" cx="1.883" cy="1.883" r="1.883" transform="translate(1125 1337.037)"/>
      <circle id="Ellipse_169-4" data-name="Ellipse 169" class="cls-2" cx="1.883" cy="1.883" r="1.883" transform="translate(1125 1317.58)"/>
      <circle id="Ellipse_95-4" data-name="Ellipse 95" class="cls-2" cx="1.883" cy="1.883" r="1.883" transform="translate(1230 1414.864)"/>
      <circle id="Ellipse_110-4" data-name="Ellipse 110" class="cls-2" cx="1.883" cy="1.883" r="1.883" transform="translate(1230 1395.407)"/>
      <circle id="Ellipse_125-4" data-name="Ellipse 125" class="cls-2" cx="1.883" cy="1.883" r="1.883" transform="translate(1230 1375.95)"/>
      <circle id="Ellipse_140-4" data-name="Ellipse 140" class="cls-2" cx="1.883" cy="1.883" r="1.883" transform="translate(1230 1356.493)"/>
      <circle id="Ellipse_155-4" data-name="Ellipse 155" class="cls-2" cx="1.883" cy="1.883" r="1.883" transform="translate(1230 1337.037)"/>
      <circle id="Ellipse_170-4" data-name="Ellipse 170" class="cls-2" cx="1.883" cy="1.883" r="1.883" transform="translate(1230 1317.58)"/>
      <circle id="Ellipse_96-4" data-name="Ellipse 96" class="cls-2" cx="1.883" cy="1.883" r="1.883" transform="translate(1019 1414.864)"/>
      <circle id="Ellipse_111-4" data-name="Ellipse 111" class="cls-2" cx="1.883" cy="1.883" r="1.883" transform="translate(1019 1395.407)"/>
      <circle id="Ellipse_126-4" data-name="Ellipse 126" class="cls-2" cx="1.883" cy="1.883" r="1.883" transform="translate(1019 1375.95)"/>
      <circle id="Ellipse_141-4" data-name="Ellipse 141" class="cls-2" cx="1.883" cy="1.883" r="1.883" transform="translate(1019 1356.493)"/>
      <circle id="Ellipse_156-4" data-name="Ellipse 156" class="cls-2" cx="1.883" cy="1.883" r="1.883" transform="translate(1019 1337.037)"/>
      <circle id="Ellipse_171-4" data-name="Ellipse 171" class="cls-2" cx="1.883" cy="1.883" r="1.883" transform="translate(1019 1317.58)"/>
      <circle id="Ellipse_97-4" data-name="Ellipse 97" class="cls-2" cx="1.883" cy="1.883" r="1.883" transform="translate(1103 1414.864)"/>
      <circle id="Ellipse_112-4" data-name="Ellipse 112" class="cls-2" cx="1.883" cy="1.883" r="1.883" transform="translate(1103 1395.407)"/>
      <circle id="Ellipse_127-4" data-name="Ellipse 127" class="cls-2" cx="1.883" cy="1.883" r="1.883" transform="translate(1103 1375.95)"/>
      <circle id="Ellipse_142-4" data-name="Ellipse 142" class="cls-2" cx="1.883" cy="1.883" r="1.883" transform="translate(1103 1356.493)"/>
      <circle id="Ellipse_157-4" data-name="Ellipse 157" class="cls-2" cx="1.883" cy="1.883" r="1.883" transform="translate(1103 1337.037)"/>
      <circle id="Ellipse_172-4" data-name="Ellipse 172" class="cls-2" cx="1.883" cy="1.883" r="1.883" transform="translate(1103 1317.58)"/>
      <circle id="Ellipse_98-4" data-name="Ellipse 98" class="cls-2" cx="1.883" cy="1.883" r="1.883" transform="translate(1209 1414.864)"/>
      <circle id="Ellipse_113-4" data-name="Ellipse 113" class="cls-2" cx="1.883" cy="1.883" r="1.883" transform="translate(1209 1395.407)"/>
      <circle id="Ellipse_128-4" data-name="Ellipse 128" class="cls-2" cx="1.883" cy="1.883" r="1.883" transform="translate(1209 1375.95)"/>
      <circle id="Ellipse_143-4" data-name="Ellipse 143" class="cls-2" cx="1.883" cy="1.883" r="1.883" transform="translate(1209 1356.493)"/>
      <circle id="Ellipse_158-4" data-name="Ellipse 158" class="cls-2" cx="1.883" cy="1.883" r="1.883" transform="translate(1209 1337.037)"/>
      <circle id="Ellipse_173-4" data-name="Ellipse 173" class="cls-2" cx="1.883" cy="1.883" r="1.883" transform="translate(1209 1317.58)"/>
      <circle id="Ellipse_99-4" data-name="Ellipse 99" class="cls-2" cx="1.883" cy="1.883" r="1.883" transform="translate(1061 1414.864)"/>
      <circle id="Ellipse_114-4" data-name="Ellipse 114" class="cls-2" cx="1.883" cy="1.883" r="1.883" transform="translate(1061 1395.407)"/>
      <circle id="Ellipse_129-4" data-name="Ellipse 129" class="cls-2" cx="1.883" cy="1.883" r="1.883" transform="translate(1061 1375.95)"/>
      <circle id="Ellipse_144-4" data-name="Ellipse 144" class="cls-2" cx="1.883" cy="1.883" r="1.883" transform="translate(1061 1356.493)"/>
      <circle id="Ellipse_159-4" data-name="Ellipse 159" class="cls-2" cx="1.883" cy="1.883" r="1.883" transform="translate(1061 1337.037)"/>
      <circle id="Ellipse_174-4" data-name="Ellipse 174" class="cls-2" cx="1.883" cy="1.883" r="1.883" transform="translate(1061 1317.58)"/>
      <circle id="Ellipse_100-4" data-name="Ellipse 100" class="cls-2" cx="1.883" cy="1.883" r="1.883" transform="translate(1167 1414.864)"/>
      <circle id="Ellipse_115-4" data-name="Ellipse 115" class="cls-2" cx="1.883" cy="1.883" r="1.883" transform="translate(1167 1395.407)"/>
      <circle id="Ellipse_130-4" data-name="Ellipse 130" class="cls-2" cx="1.883" cy="1.883" r="1.883" transform="translate(1167 1375.95)"/>
      <circle id="Ellipse_145-4" data-name="Ellipse 145" class="cls-2" cx="1.883" cy="1.883" r="1.883" transform="translate(1167 1356.493)"/>
      <circle id="Ellipse_160-4" data-name="Ellipse 160" class="cls-2" cx="1.883" cy="1.883" r="1.883" transform="translate(1167 1337.037)"/>
      <circle id="Ellipse_175-4" data-name="Ellipse 175" class="cls-2" cx="1.883" cy="1.883" r="1.883" transform="translate(1167 1317.58)"/>
      <circle id="Ellipse_101-4" data-name="Ellipse 101" class="cls-2" cx="1.883" cy="1.883" r="1.883" transform="translate(1146 1414.864)"/>
      <circle id="Ellipse_116-4" data-name="Ellipse 116" class="cls-2" cx="1.883" cy="1.883" r="1.883" transform="translate(1146 1395.407)"/>
      <circle id="Ellipse_131-4" data-name="Ellipse 131" class="cls-2" cx="1.883" cy="1.883" r="1.883" transform="translate(1146 1375.95)"/>
      <circle id="Ellipse_146-4" data-name="Ellipse 146" class="cls-2" cx="1.883" cy="1.883" r="1.883" transform="translate(1146 1356.493)"/>
      <circle id="Ellipse_161-4" data-name="Ellipse 161" class="cls-2" cx="1.883" cy="1.883" r="1.883" transform="translate(1146 1337.037)"/>
      <circle id="Ellipse_176-4" data-name="Ellipse 176" class="cls-2" cx="1.883" cy="1.883" r="1.883" transform="translate(1146 1317.58)"/>
    </g>
  </g>
</svg>
